{
  "id": 42,
  "path": "namespace/project/image",
  "location": "gitlab.int/namespace/project/image",
  "tags_path": "/namespace/project/registry/repository/42/tags?format=json",
  "destroy_path": "/namespace/project/container_registry/42.json"
}